t, C 	 $\arepsilon$ (mV)
24	0,48
26	0,6
28	0,72
30	0,84
32	0,96
34	1,08
36	1,2
38	1,32
40	1,48
42	1,6
44	1,72
46	1,85
48	1,98
50	2,12
52	2,25
54	2,38
56	2,55
58	2,67
60	2,79
62	2,94
64	3,08
66	3,22
68	3,36
70	3,53
72	3,7
74	3,85
