R_1,R_2,R_x2,,R_1,R_2,R_x1
17,100,17,,100,76,132
19,110,17,,150,114,132
20,120,17,,200,151,132
22,130,17,,250,189,132
23.3,140,17,,300,226,133
25,150,17,,350,265,132
100,590,17,,133,100,133
150,900,17,,200,150,133
200,1170,17,,265,200,132
250,1500,17,,332,250,133
300,1820,16,,397,300,132
350,2100,17,,463,350,132
